<svg viewBox="0 0 40 40" xmlns="http://www.w3.org/2000/svg">
  <g fill="currentColor" fill-rule="nonzero">
    <path d="M14 35a1 1 0 100 2 1 1 0 000-2z"/>
    <path d="M39.73 13a2.34 2.34 0 00-.74-.84L32.5 7.88V5.47a.78.78 0 00-.78-.78h-3.76L22.26.72a3.9 3.9 0 00-4.51 0l-5.72 3.97H8.28a.78.78 0 00-.78.78v2.41l-6.49 4.28-.02.02c-.4.28-.74.8-.76.83-.06.11-.23.67-.23 1.08v23.57A2.35 2.35 0 002.34 40h35.32A2.35 2.35 0 0040 37.66V14.09a2.33 2.33 0 00-.27-1.1zm-1.3 24.56L25.42 26.63 38.44 15v22.56zM1.57 15L14.6 26.63 1.56 37.56V15zm14.21 12.69l1.6 1.41a3.9 3.9 0 005.27 0l1.59-1.41 12.82 10.75H2.95l12.82-10.75zm22.17-14.35L32.5 18.2V9.75l5.44 3.6zM18.64 2c.82-.57 1.9-.57 2.72 0l3.87 2.7H14.77l3.88-2.7zm12.3 4.26V19.6l-9.35 8.34v.01c-.9.83-2.27.83-3.18 0L9.06 19.6V6.25h21.88zM7.5 18.2l-5.44-4.86L7.5 9.75v8.45z"/>
    <path d="M26.21 35H16.8c-.44 0-.79.45-.79 1s.35 1 .79 1h9.42c.44 0 .79-.45.79-1s-.35-1-.79-1zM13.78 17h12.44c.43 0 .78-.45.78-1s-.35-1-.78-1H13.78c-.43 0-.78.45-.78 1s.35 1 .78 1zM13.78 13h12.44c.43 0 .78-.45.78-1s-.35-1-.78-1H13.78c-.43 0-.78.45-.78 1s.35 1 .78 1zM25.21 20H15.8c-.44 0-.79.45-.79 1s.35 1 .79 1h9.42c.44 0 .79-.45.79-1s-.35-1-.79-1z"/>
  </g>
</svg>