<svg viewBox="0 0 35 26" xmlns="http://www.w3.org/2000/svg">
  <g fill="none" fill-rule="evenodd">
    <path stroke="currentColor" stroke-width="1.72" d="M1 9.47h24.11v15.5H1z"/>
    <path fill="currentColor" fill-rule="nonzero" d="M25.97 22.39v-1.73h2.58V6.03H6.17V8.6H4.44v-4.3h25.83v18.08h-1.72z"/>
    <path fill="currentColor" fill-rule="nonzero" d="M30.27 18.08v-1.72h2.59V1.72H10.47V4.3H8.75V0h25.83v18.08h-1.72z"/>
  </g>
</svg>