<svg xmlns="http://www.w3.org/2000/svg" viewBox="0 0 12 12">
  <g fill="currentColor" fill-rule="nonzero">
    <path d="M8.693 3.307A11.354 11.354 0 001.365 0a.322.322 0 00-.255.096.334.334 0 00-.11.248v2.08c0 .18.138.33.317.345a8.572 8.572 0 015.427 2.486 8.599 8.599 0 012.493 5.427c.014.18.166.317.345.317h2.073a.334.334 0 00.248-.11.322.322 0 00.096-.255 11.354 11.354 0 00-3.306-7.328z"/>
    <path d="M5.868 6.132a7.389 7.389 0 00-4.481-2.131.363.363 0 00-.275.091.356.356 0 00-.112.26v2.132c0 .176.127.324.302.352a4.516 4.516 0 013.862 3.862.355.355 0 00.352.302h2.131a.356.356 0 00.26-.113.363.363 0 00.092-.274 7.388 7.388 0 00-2.131-4.48z"/>
    <path d="M3.416 8.584a2.002 2.002 0 00-2.832 2.832A2.003 2.003 0 003.96 10.4a2.002 2.002 0 00-.544-1.816z"/>
  </g>
</svg>