<svg xmlns="http://www.w3.org/2000/svg" viewBox="0 0 32 32">
  <g fill="none" fill-rule="evenodd">
    <ellipse fill="#E10000" fill-rule="nonzero" cx="16" cy="15.698" rx="16" ry="15.61"/>
    <rect fill="#FFF" fill-rule="nonzero" x="8" y="10.146" width="16.8" height="11.707" rx="2"/>
    <path fill="#E10000" fill-rule="nonzero" d="M14.4 12.487v6.244l4.8-3.122z"/>
    <path d="M6.4 7.024h19.2v18.732H6.4z"/>
  </g>
</svg>