<svg xmlns="http://www.w3.org/2000/svg" viewBox="1597.249 -8924.75 17.502 16.593">
  <defs>
    <style>
      .cls-1 {
        fill: none;
        stroke: #000;
        stroke-width: 1.5px;
      }
    </style>
  </defs>
  <g id="user" transform="translate(1598 -8932.045)">
    <path id="Path_31" data-name="Path 31" class="cls-1" d="M.641,143.233H15.359a.653.653,0,0,0,.5-.231.589.589,0,0,0,.134-.455,8.508,8.508,0,0,0-4.262-6.434,5.1,5.1,0,0,1-7.467,0A8.507,8.507,0,0,0,0,142.547.59.59,0,0,0,.138,143,.653.653,0,0,0,.641,143.233Z" transform="translate(0 -120.096)"/>
    <path id="Path_32" data-name="Path 32" class="cls-1" d="M54.324,15.17c.086.095.176.185.268.272a4.392,4.392,0,0,0,6.1,0c.093-.087.183-.177.268-.272s.169-.191.247-.293a4.942,4.942,0,0,0,1.018-3.019,4.587,4.587,0,1,0-9.163,0,4.942,4.942,0,0,0,1.018,3.019C54.155,14.979,54.238,15.076,54.324,15.17Z" transform="translate(-49.641 1)"/>
  </g>
</svg>
