<svg xmlns="http://www.w3.org/2000/svg" viewBox="1510 -774 22.1 22.1">
  <defs>
    <style>
      .cls-1 {
        fill: #f0f0f0;
      }

      .cls-2 {
        fill: #95989a;
      }
    </style>
  </defs>
  <g id="fb" transform="translate(1395 -1432)">
    <circle id="Ellipse_1" data-name="Ellipse 1" class="cls-1" cx="11.05" cy="11.05" r="11.05" transform="translate(115 658)"/>
    <g id="facebook-logo_1_" data-name="facebook-logo (1)" transform="translate(123 664)">
      <path id="Path_2" data-name="Path 2" class="cls-2" d="M27.056,0H25.815a2.225,2.225,0,0,0-2.3,2.448V3.576H22.272a.2.2,0,0,0-.2.2V5.414a.2.2,0,0,0,.2.2H23.52V9.743a.2.2,0,0,0,.2.2h1.628a.2.2,0,0,0,.2-.2V5.617H27a.2.2,0,0,0,.2-.2V3.779a.207.207,0,0,0-.057-.143A.191.191,0,0,0,27,3.576H25.538V2.62c0-.46.1-.693.682-.693h.836a.2.2,0,0,0,.2-.2V.2A.2.2,0,0,0,27.056,0Z" transform="translate(-22.077)"/>
    </g>
  </g>
</svg>
