<?xml version="1.0" encoding="UTF-8"?>
<svg width="143px" height="143px" viewBox="0 0 143 143" version="1.1" xmlns="http://www.w3.org/2000/svg" xmlns:xlink="http://www.w3.org/1999/xlink">
    <!-- Generator: Sketch 51.2 (57519) - http://www.bohemiancoding.com/sketch -->
    <title>landscape_icon</title>
    <desc>Created with Sketch.</desc>
    <defs></defs>
    <g id="all-file" stroke="none" stroke-width="1" fill="none" fill-rule="evenodd">
        <g id="Landscape_mode" transform="translate(-249.000000, -52.000000)" fill="#000000">
            <g id="landscape_icon" transform="translate(249.000000, 52.000000)">
                <g id="Group">
                    <g id="smartphone" fill-rule="nonzero">
                        <path d="M40.5,117 C35.26075,117 31,121.26075 31,126.5 C31,131.73925 35.26075,136 40.5,136 C45.73925,136 50,131.73925 50,126.5 C50,121.26075 45.73925,117 40.5,117 Z M40.5,131.25 C37.880375,131.25 35.75,129.119625 35.75,126.5 C35.75,123.880375 37.880375,121.75 40.5,121.75 C43.119625,121.75 45.25,123.880375 45.25,126.5 C45.25,129.119625 43.119625,131.25 40.5,131.25 Z" id="Shape"></path>
                        <path d="M31.3333333,12 L40.6666667,12 C41.9546667,12 43,10.8825 43,9.5 C43,8.1175 41.9546667,7 40.6666667,7 L31.3333333,7 C30.0453333,7 29,8.1175 29,9.5 C29,10.8825 30.0453333,12 31.3333333,12 Z" id="Shape"></path>
                        <path d="M48.3333333,12 L50.6666667,12 C51.9546667,12 53,10.8825 53,9.5 C53,8.1175 51.9546667,7 50.6666667,7 L48.3333333,7 C47.0453333,7 46,8.1175 46,9.5 C46,10.8825 47.0453333,12 48.3333333,12 Z" id="Shape"></path>
                        <path d="M129,111.333333 C129,110.043 127.88,109 126.5,109 C125.12,109 124,110.043 124,111.333333 L124,113.666667 C124,114.957 125.12,116 126.5,116 C127.88,116 129,114.957 129,113.666667 L129,111.333333 Z" id="Shape"></path>
                        <path d="M129,83.3333333 C129,82.043 127.88,81 126.5,81 C125.12,81 124,82.043 124,83.3333333 L124,85.6666667 C124,86.957 125.12,88 126.5,88 C127.88,88 129,86.957 129,85.6666667 L129,83.3333333 Z" id="Shape"></path>
                        <path d="M129,103.333333 C129,102.043 127.88,101 126.5,101 C125.12,101 124,102.043 124,103.333333 L124,105.666667 C124,106.957 125.12,108 126.5,108 C127.88,108 129,106.957 129,105.666667 L129,103.333333 Z" id="Shape"></path>
                        <path d="M129,92.3333333 C129,91.043 127.88,90 126.5,90 C125.12,90 124,91.043 124,92.3333333 L124,94.6666667 C124,95.957 125.12,97 126.5,97 C127.88,97 129,95.957 129,94.6666667 L129,92.3333333 Z" id="Shape"></path>
                        <path d="M129,74.3333333 C129,73.043 127.88,72 126.5,72 C125.12,72 124,73.043 124,74.3333333 L124,76.6666667 C124,77.957 125.12,79 126.5,79 C127.88,79 129,77.957 129,76.6666667 L129,74.3333333 Z" id="Shape"></path>
                        <path d="M129,121.333333 C129,120.043 127.88,119 126.5,119 C125.12,119 124,120.043 124,121.333333 L124,123.666667 C124,124.957 125.12,126 126.5,126 C127.88,126 129,124.957 129,123.666667 L129,121.333333 Z" id="Shape"></path>
                        <path d="M126.5,129 C125.12,129 124,130.043 124,131.333333 L124,133.666667 C124,134.957 125.12,136 126.5,136 C127.88,136 129,134.957 129,133.666667 L129,131.333333 C129,130.043 127.88,129 126.5,129 Z" id="Shape"></path>
                        <path d="M90.6619906,138 L88.3380094,138 C87.0474282,138 86,139.1175 86,140.5 C86,141.8825 87.0474282,143 88.3380094,143 L90.6619906,143 C91.9525718,143 93,141.8825 93,140.5 C93,139.1175 91.9525718,138 90.6619906,138 Z" id="Shape"></path>
                        <path d="M80.6332373,138.233333 L78.7587613,138.233333 C78.7634948,138.226183 78.7658616,138.219033 78.7705951,138.211883 C79.0640737,137.75905 79.3173173,137.282383 79.5374262,136.789033 C79.5918618,136.667483 79.6462973,136.548317 79.6959993,136.426767 C79.7409678,136.317133 79.7977701,136.21465 79.8380051,136.102633 C79.8711398,136.012067 79.8569392,135.9215 79.87824,135.830933 C80.2356212,134.779883 80.4699307,133.671633 80.4699307,132.501417 L80.4699307,128.816783 L80.4699307,126.643183 L80.4699307,120.12 L80.4699307,117.944017 L80.4699307,111.420833 L80.4699307,109.247233 L80.4699307,102.721667 L80.4699307,100.545683 L80.4699307,94.0225 L80.4699307,91.8489 L80.4699307,85.3233333 L80.4699307,83.14735 L80.4699307,76.6241667 L80.4699307,74.4505667 L80.4699307,68.77585 C81.1704925,68.36115 81.653312,67.6127833 81.653312,66.7357167 C81.653312,65.8634167 81.1633922,65.1317333 80.4699307,64.7170333 L80.4699307,10.4985833 C80.4699307,4.71185 75.7932077,0 70.0443412,0 L10.4255896,0 C4.67672303,0 0,4.71185 0,10.4985833 L0,132.499033 C0,138.28815 4.67672303,143 10.4255896,143 L70.0419744,143 L71.2253557,143 C71.5851037,143 71.9188172,142.904667 72.2241296,142.759283 C73.6086857,142.461367 74.8843708,141.879833 76.0062163,141.086183 C76.2334255,142.1706 77.1398956,143 78.2806752,143 L80.6332373,143 C81.9396903,143 83,141.93465 83,140.616667 C83,139.298683 81.9396903,138.233333 80.6332373,138.233333 Z M4.73352534,19.0666667 L75.7364054,19.0666667 L75.7364054,64.35 L75.7364054,67.925 L75.7364054,74.4481833 L75.7364054,76.6217833 L75.7364054,83.1449667 L75.7364054,85.3233333 L75.7364054,91.8465167 L75.7364054,94.0201167 L75.7364054,100.5433 L75.7364054,102.721667 L75.7364054,109.24485 L75.7364054,109.633333 L4.73352534,109.633333 L4.73352534,19.0666667 Z M10.4255896,4.76666667 L70.0419744,4.76666667 C73.1826685,4.76666667 75.7364054,7.33828333 75.7364054,10.4985833 L75.7364054,14.3 L4.73352534,14.3 L4.73352534,10.4985833 C4.73352534,7.33828333 7.28726225,4.76666667 10.4255896,4.76666667 Z M70.0443412,138.233333 L10.4255896,138.233333 C7.28726225,138.233333 4.73352534,135.661717 4.73352534,132.501417 L4.73352534,114.4 L75.7364054,114.4 L75.7364054,117.941633 L75.7364054,120.117617 L75.7364054,126.6408 L75.7364054,128.8144 L75.7364054,132.499033 C75.7364054,133.235483 75.5849326,133.936183 75.3340557,134.582067 C75.1731159,134.994383 74.971941,135.387633 74.7210642,135.752283 C73.6938892,137.249017 71.9827198,138.233333 70.0443412,138.233333 Z" id="Shape"></path>
                        <path d="M99.6619906,138 L97.3380094,138 C96.0474282,138 95,139.1175 95,140.5 C95,141.8825 96.0474282,143 97.3380094,143 L99.6619906,143 C100.952572,143 102,141.8825 102,140.5 C102,139.1175 100.952572,138 99.6619906,138 Z" id="Shape"></path>
                        <path d="M108.661991,69 C109.952572,69 111,67.8825 111,66.5 C111,65.1175 109.952572,64 108.661991,64 L106.338009,64 C105.047428,64 104,65.1175 104,66.5 C104,67.8825 105.047428,69 106.338009,69 L108.661991,69 Z" id="Shape"></path>
                        <path d="M89.6619906,69 C90.9525718,69 92,67.8825 92,66.5 C92,65.1175 90.9525718,64 89.6619906,64 L87.3380094,64 C86.0474282,64 85,65.1175 85,66.5 C85,67.8825 86.0474282,69 87.3380094,69 L89.6619906,69 Z" id="Shape"></path>
                        <path d="M109.661991,138 L107.338009,138 C106.047428,138 105,139.1175 105,140.5 C105,141.8825 106.047428,143 107.338009,143 L109.661991,143 C110.952572,143 112,141.8825 112,140.5 C112,139.1175 110.952572,138 109.661991,138 Z" id="Shape"></path>
                        <path d="M97.6619906,69 C98.9525718,69 100,67.8825 100,66.5 C100,65.1175 98.9525718,64 97.6619906,64 L95.3380094,64 C94.0474282,64 93,65.1175 93,66.5 C93,67.8825 94.0474282,69 95.3380094,69 L97.6619906,69 Z" id="Shape"></path>
                        <path d="M128.661991,138 L126.338009,138 C125.047428,138 124,139.1175 124,140.5 C124,141.8825 125.047428,143 126.338009,143 L128.661991,143 C129.952572,143 131,141.8825 131,140.5 C131,139.1175 129.95491,138 128.661991,138 Z" id="Shape"></path>
                        <path d="M140.5,100 C139.12,100 138,101.04509 138,102.338009 L138,104.661991 C138,105.95491 139.12,107 140.5,107 C141.88,107 143,105.95491 143,104.661991 L143,102.338009 C143,101.04509 141.88,100 140.5,100 Z" id="Shape"></path>
                        <path d="M140.5,118 C139.12,118 138,119.045439 138,120.338791 L138,122.661209 C138,123.954561 139.12,125 140.5,125 C141.88,125 143,123.954561 143,122.661209 L143,120.338791 C143,119.045439 141.88,118 140.5,118 Z" id="Shape"></path>
                        <path d="M140.5,109 C139.12,109 138,110.045439 138,111.338791 L138,113.661209 C138,114.954561 139.12,116 140.5,116 C141.88,116 143,114.954561 143,113.661209 L143,111.338791 C143,110.045439 141.88,109 140.5,109 Z" id="Shape"></path>
                        <path d="M140.5,89 C139.12,89 138,90.0450902 138,91.3380094 L138,93.6619906 C138,94.9549098 139.12,96 140.5,96 C141.88,96 143,94.9549098 143,93.6619906 L143,91.3380094 C143,90.0450902 141.88,89 140.5,89 Z" id="Shape"></path>
                        <path d="M142.836773,72.9371036 C142.602897,71.6643607 141.348244,70.801048 140.013197,71.0396873 C138.690331,71.264289 137.803547,72.4762022 138.037424,73.7489451 C138.095894,74.0694705 138.127564,74.4016938 138.127564,74.7362567 L138.127564,75.6603991 C138.127564,76.9541984 139.21899,78 140.563782,78 C141.908574,78 143,76.9541984 143,75.6603991 L143,74.7362567 C143,74.1326397 142.943967,73.5290226 142.836773,72.9371036 Z" id="Shape"></path>
                        <path d="M117.661991,69 C118.952572,69 120,67.8825 120,66.5 C120,65.1175 118.952572,64 117.661991,64 L115.338009,64 C114.047428,64 113,65.1175 113,66.5 C113,67.8825 114.047428,69 115.338009,69 L117.661991,69 Z" id="Shape"></path>
                        <path d="M140.5,81 C139.12,81 138,82.0454394 138,83.3387905 L138,85.6612095 C138,86.9545606 139.12,88 140.5,88 C141.88,88 143,86.9545606 143,85.6612095 L143,83.3387905 C143,82.0477781 141.88,81 140.5,81 Z" id="Shape"></path>
                        <path d="M127.661991,69 C128.952572,69 130,67.8825 130,66.5 C130,65.1175 128.952572,64 127.661991,64 L125.338009,64 C124.047428,64 123,65.1175 123,66.5 C123,67.8825 124.047428,69 125.338009,69 L127.661991,69 Z" id="Shape"></path>
                        <path d="M118.661991,138 L116.338009,138 C115.047428,138 114,139.1175 114,140.5 C114,141.8825 115.047428,143 116.338009,143 L118.661991,143 C119.952572,143 121,141.8825 121,140.5 C121,139.1175 119.95491,138 118.661991,138 Z" id="Shape"></path>
                        <path d="M135.408602,69.6620615 C135.784744,69.8907417 136.196822,70 136.601714,70 C137.430662,70 138.238049,69.5426396 138.681273,68.7244727 C139.34012,67.507386 138.944812,65.9549016 137.797221,65.2561566 C136.901189,64.709865 135.938075,64.3109451 134.931837,64.0644787 C133.647685,63.7519491 132.358742,64.6056885 132.061662,65.9726878 C131.764582,67.3396872 132.569572,68.7041456 133.860912,69.0166752 C134.402364,69.1488015 134.922254,69.3673182 135.408602,69.6620615 Z" id="Shape"></path>
                        <path d="M140.5,128 C139.12,128 138,129.05389 138,130.357696 L138,132.698889 C138,134.002695 139.12,135 140.5,135 C141.88,135 143,133.88481 143,132.583361 L143,130.360054 C143,129.056248 141.88,128 140.5,128 Z" id="Shape"></path>
                        <path d="M135.568346,137.535727 C135.185309,137.890115 134.76018,138.179851 134.305586,138.390568 C133.230136,138.893415 132.716613,140.291809 133.158579,141.515404 C133.493211,142.442079 134.278226,143 135.105334,143 C135.370514,143 135.642007,142.942532 135.902978,142.820412 C136.738504,142.430107 137.519311,141.90092 138.222247,141.254402 C139.125121,140.418718 139.26192,138.910176 138.527414,137.885326 C137.797118,136.858081 136.47122,136.702438 135.568346,137.535727 Z" id="Shape"></path>
                        <path d="M123.282821,50.8135789 C123.575618,50.9370526 123.887614,51 124.19961,51 C124.511606,51 124.823602,50.9370526 125.116399,50.8135789 C125.411595,50.6901053 125.675592,50.5133684 125.898789,50.2906316 L140.296209,35.7643158 C141.234597,34.8176842 141.234597,33.2875789 140.296209,32.3409474 C139.357821,31.3943158 137.841039,31.3943158 136.902651,32.3409474 L126.59958,42.7345263 L126.59958,36.4736842 C126.59958,19.1195789 112.602955,5 95.39997,5 C94.0751866,5 93,6.08221053 93,7.42105263 C93,8.75989474 94.0751866,9.84210526 95.39997,9.84210526 C109.955788,9.84210526 121.79964,21.79 121.79964,36.4736842 L121.79964,42.7345263 L111.496569,32.3409474 C110.558181,31.3943158 109.041399,31.3943158 108.103011,32.3409474 C107.164623,33.2875789 107.164623,34.8176842 108.103011,35.7643158 L122.500431,50.2906316 C122.723628,50.5133684 122.987625,50.6901053 123.282821,50.8135789 Z" id="Shape" transform="translate(117.000000, 28.000000) scale(1, -1) rotate(90.000000) translate(-117.000000, -28.000000) "></path>
                    </g>
                </g>
            </g>
        </g>
    </g>
</svg>