<svg xmlns="http://www.w3.org/2000/svg" viewBox="1348.393 -8922.001 22.491 11.234">
  <g id="menu" transform="translate(1370.884 -8814.523) rotate(180)">
    <g id="Menu_1_" transform="translate(0 96.243)">
      <path id="Path_1372" data-name="Path 1372" d="M.7,96.243H21.766a.7.7,0,0,1,0,1.4H.7a.7.7,0,0,1,0-1.4Z" transform="translate(0 -86.413)"/>
      <path id="Path_1373" data-name="Path 1373" d="M21.766,181.859H.7a.7.7,0,0,1,0-1.4H21.766a.7.7,0,0,1,0,1.4Z" transform="translate(0 -175.54)"/>
      <path id="Path_1374" data-name="Path 1374" d="M141.752,266.071H121.324c-.564,0-1.021-.315-1.021-.7s.458-.7,1.021-.7h20.427c.564,0,1.021.315,1.021.7S142.315,266.071,141.752,266.071Z" transform="translate(-120.282 -264.667)"/>
    </g>
  </g>
</svg>
