<?xml version="1.0" encoding="UTF-8"?>
<svg width="68px" height="237px" viewBox="0 0 68 237" version="1.1" xmlns="http://www.w3.org/2000/svg" xmlns:xlink="http://www.w3.org/1999/xlink">
    <!-- Generator: Sketch 51.2 (57519) - http://www.bohemiancoding.com/sketch -->
    <title>Artboard 2</title>
    <desc>Created with Sketch.</desc>
    <defs></defs>
    <g id="Artboard-2" stroke="none" stroke-width="1" fill="none" fill-rule="evenodd">
        <g id="Group" transform="translate(6.000000, 3.000000)" fill-rule="nonzero">
            <rect id="Rectangle" x="0" y="0" width="42" height="42"></rect>
            <g id="clear-sky" transform="translate(4.000000, 8.000000)" fill="#000000">
                <path d="M26.4670872,13 L25.8313896,11.9545912 L24.4894941,11.8203763 L25.4263116,10.966853 L25.1550647,9.80400611 L26.3702987,10.321992 L27.5449054,9.73585007 L27.3596927,10.9112796 L28.3562563,11.7134237 L27.02631,11.9199889 L26.4670872,13 Z M0.598159334,9.7209647 L0.799631411,8.7799964 L0,8.10590159 L1.11497901,7.97937591 L1.62053627,7.12453013 L2.11107698,7.98469211 L3.22230185,8.13141937 L2.41015665,8.79275529 L2.59035528,9.73585007 L1.59926282,9.28397264 L0.598159334,9.7209647 Z M21.5180092,7.59402905 L20.6227319,7.48507102 L21.247452,6.80316516 L21.0663064,5.8715128 L21.8768169,6.28653271 L22.6606201,5.81887016 L22.5363727,6.75909225 L23.2005733,7.40059794 L22.3145855,7.56464711 L21.9418435,8.4301901 L21.5180092,7.59402905 Z M25.5812468,5.39994182 L25.1339544,5.34607961 L25.4460189,5.00495225 L25.3580735,4.54014129 L25.7599746,4.74860801 L26.1514737,4.51321019 L26.0909521,4.98201094 L26.4228752,5.30318933 L25.9793654,5.386975 L25.7930724,5.81887016 L25.5812468,5.39994182 Z M6.24743571,2.13611169 L5.80014333,2.0812939 L6.11315343,1.73943026 L6.0233167,1.27597081 L6.42710918,1.4832817 L6.81860822,1.24906026 L6.75714098,1.71750315 L7.08906408,2.03843636 L6.6455543,2.12215807 L6.45926128,2.55472023 L6.24743571,2.13611169 Z M32.7003172,15.7470784 C32.5535292,15.626 32.3738607,15.5650784 32.1925984,15.5650784 C32.057847,15.5650784 31.9222988,15.5991928 31.799584,15.6682712 C30.2900578,16.5213856 28.551123,17.0088856 26.6990775,17.0088856 C20.904767,17.0088856 16.2093117,12.2525 16.2093117,6.38304248 C16.2093117,4.50696405 16.6905667,2.74465686 17.5327525,1.21554248 C17.6931708,0.923849673 17.6627228,0.562313725 17.4549548,0.303120915 C17.3001564,0.108035948 17.0683571,0 16.8285055,0 C16.7490722,0 16.668884,0.0121928105 16.5910863,0.0365359477 C11.2379367,1.70707843 7.33333333,6.75269281 7.33333333,12.7180784 C7.33333333,20.0419641 13.2158844,26 20.4459496,26 C26.3340786,26 31.3159384,22.0447288 32.9642002,16.6229216 C33.061248,16.3036569 32.9569446,15.9566928 32.7003172,15.7470784 Z M20.4459496,23.5625 C14.5425546,23.5625 9.7396504,18.6980784 9.7396504,12.7180784 C9.7396504,9.22027124 11.3663134,6.05396405 14.0099657,4.05438562 C13.8728237,4.82057843 13.8030365,5.60057843 13.8030365,6.383 C13.8030365,13.5858072 19.5877429,19.4463431 26.6990775,19.4463431 C27.4723149,19.4463431 28.2414842,19.3756928 28.9978619,19.2367288 C27.0238985,21.9155359 23.8989492,23.5625 20.4459496,23.5625 Z" id="Shape"></path>
            </g>
        </g>
        <g id="Group-2" transform="translate(7.000000, 48.000000)" fill-rule="nonzero">
            <rect id="Rectangle-Copy" x="0" y="0" width="42" height="42"></rect>
            <g id="rain" transform="translate(4.000000, 4.000000)" fill="#000000">
                <path d="M12.8030556,7.92782038 C13.0286667,8.15337557 13.3396111,8.29270867 13.6828889,8.29270867 C14.3695556,8.29270867 14.9268333,7.7354318 14.9268333,7.04876626 C14.9268333,6.70543349 14.7875,6.39448955 14.5619444,6.16893436 L12.9033889,4.51038152 C12.6786667,4.28565966 12.3676667,4.14632656 12.0243889,4.14632656 C11.3377778,4.14632656 10.7805,4.70360343 10.7805,5.39021341 C10.7805,5.73354619 10.9198333,6.04449012 11.1453889,6.27004531 L12.8030556,7.92782038 Z M10.3658333,28.195065 C9.67922222,28.195065 9.12194444,28.7515641 9.12194444,29.4390075 L9.12194444,31.0975603 C9.12194444,31.7850592 9.67922222,32.3415027 10.3658333,32.3415027 C11.0524444,32.3415027 11.6097222,31.7850592 11.6097222,31.0975603 L11.6097222,29.4390075 C11.6097778,28.7515086 11.0525,28.195065 10.3658333,28.195065 Z M10.3658333,23.2194621 C9.67922222,23.2194621 9.12194444,23.7759056 9.12194444,24.4634045 L9.12194444,26.1219573 C9.12194444,26.8094006 9.67922222,27.3658442 10.3658333,27.3658442 C11.0524444,27.3658442 11.6097222,26.8094006 11.6097222,26.1219573 L11.6097222,24.4634045 C11.6097778,23.7759056 11.0525,23.2194621 10.3658333,23.2194621 Z M26.9512222,8.29270867 C27.2945556,8.29270867 27.6055,8.15337557 27.8302222,7.92782038 L29.4887778,6.26926753 C29.7143889,6.04454568 29.8536667,5.73354619 29.8536667,5.39026897 C29.8536667,4.70365898 29.2971667,4.14638211 28.6097222,4.14638211 C28.2663889,4.14638211 27.9554444,4.28565966 27.7307222,4.51043707 L26.0722222,6.16893436 C25.8466111,6.39448955 25.7073333,6.70548904 25.7073333,7.04876626 C25.7072778,7.73537625 26.2637778,8.29270867 26.9512222,8.29270867 Z M20.3170556,4.97560298 C21.0045556,4.97560298 21.561,4.41832611 21.561,3.73171612 L21.561,1.24388686 C21.561,0.557276867 21.0045556,0 20.3170556,0 C19.6296111,0 19.0731667,0.557276867 19.0731667,1.24388686 L19.0731667,3.73171612 C19.0731667,4.41832611 19.6296111,4.97560298 20.3170556,4.97560298 Z M32.7560556,12.4389797 L30.2682778,12.4389797 C29.5816667,12.4389797 29.0243889,12.9962565 29.0243889,13.6828665 C29.0243889,14.3695321 29.5816111,14.9268089 30.2682778,14.9268089 L32.7560556,14.9268089 C33.4426667,14.9268089 34,14.3695321 34,13.6828665 C34,12.9962565 33.4427222,12.4389797 32.7560556,12.4389797 Z M14.5122222,29.8536179 C13.8256111,29.8536179 13.2682778,30.4100614 13.2682778,31.0975047 L13.2682778,32.7560576 C13.2682778,33.4435565 13.8255556,34 14.5122222,34 C15.1988889,34 15.7561111,33.4435565 15.7561111,32.7560576 L15.7561111,31.0975047 C15.7561111,30.4100614 15.1988333,29.8536179 14.5122222,29.8536179 Z M25.1508889,18.7970248 C26.5108333,17.5124714 27.3658333,15.7005299 27.3658333,13.6829221 C27.3658333,9.79120622 24.2096111,6.63415583 20.3170556,6.63415583 C17.9777222,6.63415583 15.9095,7.77770951 14.6274444,9.5332622 C13.804,9.2745404 12.9341111,9.12198509 12.0243889,9.12198509 C7.39622222,9.12198509 3.62222222,12.7350903 3.34361111,17.2935829 C1.3575,18.33097 0,20.4074111 0,22.8048516 C0,26.2405127 2.78383333,29.0243415 6.2195,29.0243415 C6.90611111,29.0243415 7.46338889,28.4678424 7.46338889,27.7803991 C7.46338889,27.0929557 6.90611111,26.5364566 6.2195,26.5364566 C4.16211111,26.5364566 2.48777778,24.8621816 2.48777778,22.8047961 C2.48777778,21.412465 3.25738889,20.1453004 4.49627778,19.4984681 L5.741,18.8474692 L5.82644444,17.4451937 C6.02711111,14.1729213 8.74961111,11.6096477 12.0243889,11.6096477 C13.9375,11.6096477 15.7171111,12.4770352 16.9087778,13.9888105 L17.6252778,14.8985312 L18.7829444,14.9358645 C20.8055,15.0013644 22.3902778,16.6358617 22.3902778,18.658414 L22.3902778,20.3161335 L23.9211111,20.954688 C25.0057778,21.4074095 25.7073333,22.4589633 25.7073333,23.6340725 C25.7073333,25.2345699 24.4053889,26.5364566 22.8049444,26.5364566 C22.1183333,26.5364566 21.561,27.0929557 21.561,27.7803991 C21.561,28.4678424 22.1182778,29.0243415 22.8049444,29.0243415 C25.782,29.0243415 28.1951111,26.6111232 28.1951111,23.634128 C28.1951111,21.5004093 26.9487222,19.6701901 25.1508889,18.7970248 Z M24.2536111,15.9559184 C23.2750556,13.9366439 21.2400556,12.5260906 18.8633889,12.4489797 C18.316,11.7548697 17.6601111,11.1528151 16.9303333,10.6511493 C17.7646111,9.7182619 18.9686667,9.12198509 20.3170556,9.12198509 C22.8322222,9.12198509 24.8780556,11.1677595 24.8780556,13.6829221 C24.8780556,14.5129763 24.6442222,15.2858639 24.2536111,15.9559184 Z M18.6585556,23.2194621 C17.9719444,23.2194621 17.4146667,23.7759056 17.4146667,24.4634045 L17.4146667,26.1219573 C17.4146667,26.8094006 17.9718889,27.3658442 18.6585556,27.3658442 C19.3452222,27.3658442 19.9025,26.8094006 19.9025,26.1219573 L19.9025,24.4634045 C19.9024444,23.7759056 19.3451667,23.2194621 18.6585556,23.2194621 Z M14.5122222,24.8780149 C13.8256111,24.8780149 13.2682778,25.4344584 13.2682778,26.1219573 L13.2682778,27.7805102 C13.2682778,28.4679535 13.8255556,29.0244526 14.5122222,29.0244526 C15.1988889,29.0244526 15.7561111,28.4679535 15.7561111,27.7805102 L15.7561111,26.1219573 C15.7561111,25.4344029 15.1988333,24.8780149 14.5122222,24.8780149 Z M18.6585556,28.195065 C17.9719444,28.195065 17.4146667,28.7515641 17.4146667,29.4390075 L17.4146667,31.0975603 C17.4146667,31.7850592 17.9718889,32.3415027 18.6585556,32.3415027 C19.3452222,32.3415027 19.9025,31.7850592 19.9025,31.0975603 L19.9025,29.4390075 C19.9024444,28.7515086 19.3451667,28.195065 18.6585556,28.195065 Z" id="Shape"></path>
            </g>
        </g>
        <g id="Group-3" transform="translate(7.000000, 94.000000)" fill-rule="nonzero">
            <rect id="Rectangle-Copy-2" x="0" y="0" width="42" height="42"></rect>
            <g id="Sunny" transform="translate(4.000000, 4.000000)" fill="#000000">
                <path d="M5.82855556,17 C5.82855556,16.1956667 5.17577778,15.5428333 4.37138889,15.5428333 L1.45716667,15.5428333 C0.652777778,15.5428333 0,16.1956667 0,17 C0,17.8043889 0.652777778,18.4571667 1.45716667,18.4571667 L4.37144444,18.4571667 C5.17577778,18.4571667 5.82855556,17.8043889 5.82855556,17 Z M7.28572222,25.2571667 C6.88355556,25.2571667 6.51927778,25.4203889 6.255,25.6836111 L4.31216667,27.6265 C4.04888889,27.8907222 3.88572222,28.255 3.88572222,28.6571667 C3.88572222,29.4615556 4.53755556,30.1143333 5.34288889,30.1143333 C5.74505556,30.1143333 6.10933333,29.9511111 6.37261111,29.6869444 L8.3155,27.7440556 C8.57972222,27.4808333 8.74294444,27.1165556 8.74294444,26.7143889 C8.74288889,25.9099444 8.09105556,25.2571667 7.28572222,25.2571667 Z M17,5.82855556 C17.8053333,5.82855556 18.4571667,5.17577778 18.4571667,4.37138889 L18.4571667,1.45716667 C18.4571667,0.652777778 17.8053333,0 17,0 C16.1946667,0 15.5428333,0.652777778 15.5428333,1.45716667 L15.5428333,4.37144444 C15.5428333,5.17577778 16.1946667,5.82855556 17,5.82855556 Z M26.7142778,8.74288889 C27.1164444,8.74288889 27.4807222,8.57966667 27.7439444,8.31644444 L29.6868333,6.37355556 C29.9510556,6.10933333 30.1142222,5.74505556 30.1142222,5.34288889 C30.1142222,4.53855556 29.4624444,3.88572222 28.6570556,3.88572222 C28.2549444,3.88572222 27.8906111,4.04894444 27.6263889,4.31316667 L25.6835,6.256 C25.4202778,6.51927778 25.2570556,6.88355556 25.2570556,7.28572222 C25.2571667,8.09005556 25.9089444,8.74288889 26.7142778,8.74288889 Z M6.255,8.31638889 C6.51922222,8.57961111 6.8835,8.74283333 7.28572222,8.74283333 C8.09005556,8.74283333 8.74288889,8.09005556 8.74288889,7.28566667 C8.74288889,6.8835 8.57966667,6.51922222 8.31644444,6.255 L6.37355556,4.31216667 C6.10933333,4.04888889 5.74505556,3.88572222 5.34288889,3.88572222 C4.53855556,3.88572222 3.88572222,4.5385 3.88572222,5.34288889 C3.88572222,5.74505556 4.04894444,6.10933333 4.31216667,6.37261111 L6.255,8.31638889 Z M32.5428333,15.5428333 L29.6285556,15.5428333 C28.8241667,15.5428333 28.1713889,16.1956111 28.1713889,17 C28.1713889,17.8043889 28.8241667,18.4571667 29.6285556,18.4571667 L32.5428333,18.4571667 C33.3472222,18.4571667 34,17.8043889 34,17 C34,16.1956667 33.3472222,15.5428333 32.5428333,15.5428333 Z M27.7449444,25.6836111 C27.4807222,25.4203889 27.1165,25.2571667 26.7142778,25.2571667 C25.9098889,25.2571667 25.2571111,25.9099444 25.2571111,26.7143333 C25.2571111,27.1165 25.4203333,27.4807778 25.6835556,27.744 L27.6264444,29.6868889 C27.8906667,29.9511111 28.2549444,30.1142778 28.6571111,30.1142778 C29.4615,30.1142778 30.1142778,29.4615 30.1142778,28.6571111 C30.1142778,28.255 29.9510556,27.8906667 29.6878333,27.6264444 L27.7449444,25.6836111 Z M17,28.1714444 C16.1946667,28.1714444 15.5428333,28.8242222 15.5428333,29.6286111 L15.5428333,32.5428889 C15.5428333,33.3472222 16.1946667,34 17,34 C17.8053333,34 18.4571667,33.3472222 18.4571667,32.5428333 L18.4571667,29.6285556 C18.4571667,28.8242222 17.8053333,28.1714444 17,28.1714444 Z M17,6.8 C11.3754444,6.8 6.8,11.3754444 6.8,17 C6.8,22.6245556 11.3754444,27.2 17,27.2 C22.6245556,27.2 27.2,22.6245556 27.2,17 C27.2,11.3754444 22.6245556,6.8 17,6.8 Z M17,24.2857222 C12.9821667,24.2857222 9.71427778,21.0178889 9.71427778,17 C9.71427778,12.9821667 12.9821667,9.71427778 17,9.71427778 C21.0178333,9.71427778 24.2857222,12.9821667 24.2857222,17 C24.2857222,21.0178333 21.0178333,24.2857222 17,24.2857222 Z" id="Shape"></path>
            </g>
        </g>
        <g id="Group-4" transform="translate(8.000000, 140.000000)" fill-rule="nonzero">
            <rect id="Rectangle-Copy-3" x="0" y="0" width="42" height="42"></rect>
            <g id="Thunderstrom" transform="translate(5.000000, 5.000000)" fill="#000000">
                <path d="M12.050719,7.46222222 C12.2622222,7.67372549 12.5549281,7.80486275 12.8780131,7.80486275 C13.5242876,7.80486275 14.0487843,7.28036601 14.0487843,6.6340915 C14.0487843,6.31095425 13.9176471,6.01830065 13.7061438,5.80601307 L12.1451503,4.24501961 C11.9328627,4.03351634 11.6401569,3.90237908 11.3170719,3.90237908 C10.6708497,3.90237908 10.1463529,4.42687582 10.1463529,5.07309804 C10.1463529,5.39623529 10.2774902,5.68888889 10.4889935,5.90039216 L12.050719,7.46222222 Z M19.1219346,4.6829281 C19.7681569,4.6829281 20.2927059,4.15843137 20.2927059,3.51220915 L20.2927059,1.17071895 C20.2927059,0.524496732 19.7682092,0 19.1219346,0 C18.4756601,0 17.9512157,0.524496732 17.9512157,1.17071895 L17.9512157,3.51220915 C17.9512157,4.15843137 18.4757124,4.6829281 19.1219346,4.6829281 Z M25.3658562,7.80491503 C25.6889935,7.80491503 25.9816471,7.67377778 26.1939346,7.46227451 L27.7549281,5.90128105 C27.9664837,5.68899346 28.0976209,5.39628758 28.0976209,5.07320261 C28.0976209,4.42698039 27.5731242,3.90248366 26.9268497,3.90248366 C26.6037124,3.90248366 26.3110588,4.03356863 26.0987712,4.2459085 L24.5377778,5.80690196 C24.3262745,6.01840523 24.1951373,6.31111111 24.1951373,6.63419608 C24.195085,7.28036601 24.719634,7.80491503 25.3658562,7.80491503 Z M23.6714248,17.6905098 C24.9513725,16.4823529 25.7560784,14.7777255 25.7560784,12.8780131 C25.7560784,9.21521569 22.7855163,6.24386928 19.1219346,6.24386928 C16.9202092,6.24386928 14.9736471,7.32015686 13.7670065,8.97244444 C12.992732,8.72894118 12.173281,8.58535948 11.3170719,8.58535948 C6.96115033,8.58535948 3.40915033,11.9859346 3.1469281,16.2762876 C1.27764706,17.2534902 0,19.2070065 0,21.4634248 C0,24.6969935 2.62007843,27.3170719 5.85364706,27.3170719 L7.41464052,27.3170719 C8.06086275,27.3170719 8.58541176,26.7925752 8.58541176,26.1463007 C8.58541176,25.5000261 8.06091503,24.9755294 7.41464052,24.9755294 L5.85364706,24.9755294 C3.91728105,24.9755294 2.34143791,23.4005229 2.34143791,21.4633725 C2.34143791,20.1529412 3.06577778,18.9603137 4.23179085,18.3515294 L5.40329412,17.7388235 L5.48444444,16.4190327 C5.67257516,13.3392418 8.2349281,10.9267451 11.3170196,10.9267451 C13.1175948,10.9267451 14.7925229,11.7431111 15.9140915,13.1659608 L16.5884444,14.0221699 L17.6780131,14.0573072 C19.5815948,14.1189542 21.0731503,15.6580915 21.0731503,17.5608889 L21.0731503,19.121098 L22.5139346,19.7220915 C23.5347974,20.148183 24.195085,21.1378824 24.195085,22.2438693 C24.195085,23.7502222 22.9697255,24.9755294 21.4634248,24.9755294 L19.1219346,24.9755294 C18.4757124,24.9755294 17.9512157,25.5000261 17.9512157,26.1463007 C17.9512157,26.7925752 18.4756601,27.3170719 19.1219346,27.3170719 L21.4634248,27.3170719 C24.2653595,27.3170719 26.5365229,25.0458039 26.5365229,22.2439216 C26.5365752,20.2364444 25.3635033,18.5131503 23.6714248,17.6905098 Z M22.8261438,15.0173595 C21.9052026,13.1168627 19.9898562,11.789281 17.7529935,11.7167059 C17.2378562,11.0634248 16.620549,10.4967843 15.9336993,10.0254118 C16.719634,9.14656209 17.852915,8.58541176 19.1219869,8.58541176 C21.4892026,8.58541176 23.4146928,10.5108497 23.4146928,12.8780654 C23.4146405,13.6601307 23.1945621,14.386719 22.8261438,15.0173595 Z M30.8292288,11.7072941 L28.4877908,11.7072941 C27.8415686,11.7072941 27.3170719,12.2317908 27.3170719,12.8780131 C27.3170719,13.5242876 27.8415163,14.0487843 28.4877908,14.0487843 L30.8292288,14.0487843 C31.475451,14.0487843 32,13.5242876 32,12.8780131 C32,12.2317908 31.4755033,11.7072941 30.8292288,11.7072941 Z M16,25.7560784 L14.0487843,25.7560784 L14.0487843,22.2439216 C14.0487843,22.0284967 13.8739346,21.8536471 13.6585621,21.8536471 C13.5125752,21.8536471 13.3861961,21.9332288 13.3190588,22.0503529 L10.1970719,27.5137255 C10.1642876,27.570719 10.1463529,27.6370196 10.1463529,27.7072941 C10.1463529,27.922719 10.3212026,28.0975686 10.5365752,28.0975686 L12.4877908,28.0975686 L12.4877908,31.6097255 C12.4877908,31.8251503 12.6626405,32 12.8780131,32 C13.0232157,32 13.1503791,31.9204183 13.2175163,31.8032941 L16.3395033,26.3399216 C16.3722876,26.2829281 16.3902745,26.2166275 16.3902745,26.1463529 C16.3902745,25.9309281 16.2154248,25.7560784 16,25.7560784 Z" id="Shape"></path>
            </g>
        </g>
        <g id="Group-5" transform="translate(9.000000, 186.000000)" fill-rule="nonzero">
            <rect id="Rectangle-Copy-4" x="0" y="0" width="42" height="42"></rect>
            <g id="Cloudy-Copy-2" transform="translate(4.000000, 6.000000)" fill="#000000">
                <path d="M20.3170556,5.14284894 C21.0045556,5.14284894 21.561,4.56684021 21.561,3.85715106 L21.561,1.2857553 C21.561,0.576066151 21.0045556,0 20.3170556,0 C19.6296111,0 19.0731667,0.576008728 19.0731667,1.2857553 L19.0731667,3.85715106 C19.0731667,4.56689763 19.6296111,5.14284894 20.3170556,5.14284894 Z M25.1508889,19.4288531 C26.5108333,18.1011217 27.3658333,16.2283324 27.3658333,14.1428489 C27.3658333,10.1202626 24.2096111,6.85715106 20.3170556,6.85715106 C17.9777222,6.85715106 15.9095,8.04000459 14.6274444,9.85370569 C13.804,9.58628742 12.9341111,9.42854682 12.0243889,9.42854682 C7.39622222,9.42854682 3.62222222,13.1631001 3.34361111,17.8748182 C1.3575,18.947994 0,21.093427 0,23.5714532 C0,27.1225404 2.78383333,30 6.2195,30 L22.8048889,30 C25.7819444,30 28.1950556,27.5056657 28.1950556,24.4286042 C28.1951111,22.223107 26.9487222,20.3314256 25.1508889,19.4288531 Z M20.3170556,9.42860424 C22.8322222,9.42860424 24.8780556,11.5432011 24.8780556,14.1429064 C24.8780556,15.0008613 24.6442222,15.7997856 24.2536667,16.4923053 C23.2751111,14.4051566 21.2401111,12.9471901 18.8634444,12.8674872 C18.3160556,12.1500459 17.6601667,11.5277544 16.9303889,11.0100299 C17.7646111,10.0448664 18.9687222,9.42860424 20.3170556,9.42860424 Z M22.8048889,27.4285468 L6.2195,27.4285468 C4.16211111,27.4285468 2.48777778,25.6979366 2.48777778,23.5713958 C2.48777778,22.132264 3.25738889,20.8225634 4.49627778,20.1539316 L5.741,19.4810505 L5.82644444,18.03164 C6.02711111,14.649376 8.74961111,11.9999426 12.0243889,11.9999426 C13.9375,11.9999426 15.7171111,12.8964857 16.9087778,14.4590766 L17.6252778,15.399376 L18.7829444,15.4379642 C20.8055,15.5056657 22.3902778,17.1959077 22.3902778,19.2856405 L22.3902778,20.9990812 L23.9211111,21.6590996 C25.0057778,22.1270385 25.7073333,23.2139384 25.7073333,24.4285468 C25.7072778,26.082842 24.4053889,27.4285468 22.8048889,27.4285468 Z M26.9512222,8.57145318 C27.2945556,8.57145318 27.6055,8.42743664 27.8302222,8.19516117 L29.4887778,6.48085905 C29.7143889,6.24772223 29.8536667,5.92626905 29.8536667,5.57145318 C29.8536667,4.86176403 29.2971667,4.2857553 28.6097222,4.2857553 C28.2663889,4.2857553 27.9554444,4.42977184 27.7307222,4.66290866 L26.0722222,6.37715336 C25.8466111,6.60942883 25.7073333,6.93088202 25.7073333,7.2857553 C25.7072778,7.99544445 26.2637778,8.57145318 26.9512222,8.57145318 Z M12.8030556,8.19516117 C13.0286667,8.42743664 13.3396111,8.57145318 13.6828889,8.57145318 C14.3695556,8.57145318 14.9268333,7.99544445 14.9268333,7.2857553 C14.9268333,6.93088202 14.7875,6.60948626 14.5619444,6.37634944 L12.9033889,4.66204732 C12.6786667,4.42977184 12.3676667,4.2857553 12.0243889,4.2857553 C11.3377778,4.2857553 10.7805,4.86176403 10.7805,5.57145318 C10.7805,5.92632647 10.9198333,6.24772223 11.1453889,6.48005513 L12.8030556,8.19516117 Z M32.7560556,12.8571511 L30.2682778,12.8571511 C29.5816667,12.8571511 29.0243889,13.4331598 29.0243889,14.1428489 C29.0243889,14.8525381 29.5816111,15.4286042 30.2682778,15.4286042 L32.7560556,15.4286042 C33.4426667,15.4286042 34,14.8525955 34,14.1428489 C34,13.4331024 33.4427222,12.8571511 32.7560556,12.8571511 Z" id="Shape"></path>
            </g>
        </g>
    </g>
</svg>