<?xml version="1.0" encoding="UTF-8"?>
<svg width="39px" height="26px" viewBox="0 0 39 26" version="1.1" xmlns="http://www.w3.org/2000/svg" xmlns:xlink="http://www.w3.org/1999/xlink">
    <!-- Generator: Sketch 52.2 (67145) - http://www.bohemiancoding.com/sketch -->
    <title>PIP_icon</title>
    <desc>Created with Sketch.</desc>
    <g id="Page-1" stroke="none" stroke-width="1" fill="none" fill-rule="evenodd">
        <g id="Video_player_dock_in_AS_page_2" transform="translate(-161.000000, -488.000000)" fill-rule="nonzero">
            <g id="PIP_icon" transform="translate(161.000000, 488.000000)">
                <rect id="Rectangle" stroke="#BBBBBB" stroke-width="2" x="1" y="1" width="32" height="20" rx="4"></rect>
                <rect id="Rectangle-Copy" fill="#FFFFFF" x="19" y="13" width="20" height="13" rx="3"></rect>
            </g>
        </g>
    </g>
</svg>