<svg xmlns="http://www.w3.org/2000/svg" viewBox="1640 -8241 36 36">
  <defs>
    <style>
      .cls-1 {
        fill: #f5f5f5;
      }

      .cls-2 {
        fill: none;
        stroke: #000;
      }
    </style>
  </defs>
  <g id="more" transform="translate(1364 -9013)">
    <rect id="Rectangle_32" data-name="Rectangle 32" class="cls-1" width="36" height="36" transform="translate(276 772)"/>
    <path id="Path_12" data-name="Path 12" class="cls-2" d="M1665.654,1269l8,8-8,8" transform="translate(-1375.154 -486.5)"/>
  </g>
</svg>
