<?xml version="1.0" encoding="UTF-8"?>
<svg width="39px" height="135px" viewBox="0 0 39 135" version="1.1" xmlns="http://www.w3.org/2000/svg" xmlns:xlink="http://www.w3.org/1999/xlink">
    <!-- Generator: Sketch 51 (57462) - http://www.bohemiancoding.com/sketch -->
    <title>Group 2</title>
    <desc>Created with Sketch.</desc>
    <defs></defs>
    <g id="Sprite" stroke="none" stroke-width="1" fill="none" fill-rule="evenodd">
        <g id="Group-2">
            <g id="Sprite_New">
                <g id="comment_icon_PWA" transform="translate(2.000000, 0.000000)" fill="#FFFFFF" fill-rule="nonzero">
                    <g id="Library">
                        <g id="comm-copy">
                            <g id="Group_3026" transform="translate(0.292000, 0.000000)">
                                <path d="M0,24.083 L0,19.1 L6.642,19.1 L0,24.082 L0,24.083 Z M29.9,19.1 L0,19.1 L0,0 L29.9,0 L29.9,19.1 Z M7.479,10.8 L7.479,12.463 L22.421,12.463 L22.421,10.794 L7.479,10.8 Z M7.479,6.647 L7.479,8.3 L17.443,8.3 L17.443,6.641 L7.479,6.647 Z" id="comment-copy"></path>
                            </g>
                        </g>
                    </g>
                </g>
                <g id="next_article" transform="translate(4.000000, 28.000000)" fill="#FFFFFF" fill-rule="nonzero">
                    <g id="Group-12">
                        <g id="down-arrow">
                            <path d="M26,13 C26,5.82029825 20.1797017,4.39629938e-16 13,0 C5.82029825,-4.39629938e-16 8.79259876e-16,5.82029825 0,13 C-8.79259876e-16,20.1797017 5.82029825,26 13,26 C20.1762751,25.991734 25.991734,20.1762751 26,13 Z M1.3,13 C1.3,6.53826843 6.53826843,1.3 13,1.3 C19.4617316,1.3 24.7,6.53826843 24.7,13 C24.7,19.4617316 19.4617316,24.7 13,24.7 C6.5414665,24.6922857 1.30771432,19.4585335 1.3,13 Z" id="Shape-8"></path>
                            <path d="M13.982,19.808 L17.8,16.037 C17.9274833,15.9124388 17.9993535,15.7417343 17.9993535,15.5635 C17.9993535,15.3852657 17.9274833,15.2145612 17.8,15.09 C17.5343029,14.8273041 17.1066971,14.8273041 16.841,15.09 L14.181,17.717 L14.181,7.673 C14.1669686,7.30676973 13.865999,7.01711034 13.4995,7.01711034 C13.133001,7.01711034 12.8320314,7.30676973 12.818,7.673 L12.818,17.712 L10.158,15.085 C9.89230293,14.8223041 9.46469707,14.8223041 9.199,15.085 C9.07151668,15.2095612 8.99964646,15.3802657 8.99964646,15.5585 C8.99964646,15.7367343 9.07151668,15.9074388 9.199,16.032 L13.018,19.8 C13.2868103,20.0579153 13.7105288,20.060113 13.982,19.805 L13.982,19.808 Z" id="Shape-9"></path>
                        </g>
                    </g>
                </g>
                <g id="1-copy" transform="translate(0.000000, 61.000000)">
                    <circle id="Ellipse_293" fill="#000000" fill-rule="nonzero" opacity="0.7" cx="17.5" cy="17.5" r="17.5"></circle>
                    <polyline id="Path_4099" stroke="#FFFFFF" stroke-width="2" transform="translate(17.500000, 17.000000) rotate(90.000000) translate(-17.500000, -17.000000) " points="21 10 14 17 21 24"></polyline>
                </g>
            </g>
            <g id="Photo_gallery" transform="translate(1.000000, 102.000000)">
                <g id="Group-8">
                    <g id="1" fill-rule="nonzero">
                        <rect id="Rectangle_1743" fill="#000000" opacity="0.294" x="1.086" y="1.602" width="29.336" height="24.989"></rect>
                        <g id="picture" transform="translate(0.000000, 1.000000)" fill="#FFFFFF">
                            <path d="M0,0 L0,26 L32,26 L32,0 L0,0 Z M30,24 L2,24 L2,2 L30,2 L30,24 Z M22,7 C22,8.65685425 23.3431458,10 25,10 C26.6568542,10 28,8.65685425 28,7 C28,5.34314575 26.6568542,4 25,4 C23.3431458,4 22,5.34314575 22,7 Z M28,22 L4,22 L10,6 L18,16 L22,13 L28,22 Z" id="Path_4063"></path>
                        </g>
                    </g>
                    <g id="Group-4" transform="translate(8.000000, 8.000000)" stroke="#FFFFFF" stroke-linecap="square" stroke-width="2">
                        <path d="M28.5,0.5 L28.5,22.590722" id="Line-13"></path>
                        <path d="M28.5,23.5 L0,23.5" id="Line-14"></path>
                    </g>
                </g>
            </g>
        </g>
    </g>
</svg>